// Jest Snapshot v1, https://goo.gl/fbAQLP

exports[`SignUp should failed 1`] = `
ShallowWrapper {
  Symbol(enzyme.__root__): [Circular],
  Symbol(enzyme.__unrendered__): <MiniDishOrder
    addToOrder={undefined}
    count={0}
    deleteFromOrder={undefined}
    food={
        Object {
            "id_pizza": 1,
            "image": "default-pizza.png",
            "ingredients": Array [
              "Red sauce",
              "Sliced Pepperoni",
              "White sauce",
            ],
            "name_pizza": "Margarita",
            "price": 18,
            "size": 25,
            "weight": "250g",
          }
    }
/>,
  Symbol(enzyme.__renderer__): Object {
    "batchedUpdates": [Function],
    "getNode": [Function],
    "render": [Function],
    "simulateError": [Function],
    "simulateEvent": [Function],
    "unmount": [Function],
  },
  Symbol(enzyme.__node__): Object {
    "instance": null,
    "key": undefined,
    "nodeType": "class",
    "props": Object {
      "bsClass": "row",
      "children": Array [
        <Col
          bsClass="col"
          componentClass="div"
          md={3}
          xs={4}
>
          <img
                    alt="dish"
                    className="food-image"
                    src="default-pizza.png"
          />
</Col>,
        undefined,
        <Col
          bsClass="col"
          className="order-item"
          componentClass="div"
          md={4}
          xs={4}
>
          <h3>
                    Margarita
          </h3>
          <h5>
                    Red sauce,Sliced Pepperoni,White sauce
          </h5>
          <h4>
                    25
                    sm/
                    250g
          </h4>
          <h3>
                    18$
          </h3>
</Col>,
        <Col
          bsClass="col"
          className="counter"
          componentClass="div"
          md={5}
          xs={4}
>
          <Button
                    active={false}
                    block={false}
                    bsClass="btn"
                    bsStyle="default"
                    className="icon-button"
                    disabled={false}
                    onClick={undefined}
          >
                    <i
                              className="fas fa-minus"
                    />
          </Button>
          <h2
                    className="count"
          />
          <Button
                    active={false}
                    block={false}
                    bsClass="btn"
                    bsStyle="default"
                    className="icon-button"
                    disabled={false}
                    onClick={undefined}
          >
                    <i
                              className="fas fa-plus"
                    />
          </Button>
</Col>,
      ],
      "className": "order",
      "componentClass": "div",
    },
    "ref": null,
    "rendered": Array [
      Object {
        "instance": null,
        "key": undefined,
        "nodeType": "class",
        "props": Object {
          "bsClass": "col",
          "children": <img
            alt="dish"
            className="food-image"
            src="default-pizza.png"
/>,
          "componentClass": "div",
          "md": 3,
          "xs": 4,
        },
        "ref": null,
        "rendered": Object {
          "instance": null,
          "key": undefined,
          "nodeType": "host",
          "props": Object {
            "alt": "dish",
            "className": "food-image",
            "src": "default-pizza.png",
          },
          "ref": null,
          "rendered": null,
          "type": "img",
        },
        "type": [Function],
      },
      undefined,
      Object {
        "instance": null,
        "key": undefined,
        "nodeType": "class",
        "props": Object {
          "bsClass": "col",
          "children": Array [
            <h3>
              Margarita
</h3>,
            <h5>
              Red sauce,Sliced Pepperoni,White sauce
</h5>,
            <h4>
              25
              sm/
              250g
</h4>,
            <h3>
              18$
</h3>,
          ],
          "className": "order-item",
          "componentClass": "div",
          "md": 4,
          "xs": 4,
        },
        "ref": null,
        "rendered": Array [
          Object {
            "instance": null,
            "key": undefined,
            "nodeType": "host",
            "props": Object {
              "children": "Margarita",
            },
            "ref": null,
            "rendered": "Margarita",
            "type": "h3",
          },
          Object {
            "instance": null,
            "key": undefined,
            "nodeType": "host",
            "props": Object {
              "children": "Red sauce,Sliced Pepperoni,White sauce",
            },
            "ref": null,
            "rendered": "Red sauce,Sliced Pepperoni,White sauce",
            "type": "h5",
          },
          Object {
            "instance": null,
            "key": undefined,
            "nodeType": "host",
            "props": Object {
              "children": Array [
                25,
                "sm/",
                "250g",
              ],
            },
            "ref": null,
            "rendered": Array [
              25,
              "sm/",
              "250g",
            ],
            "type": "h4",
          },
          Object {
            "instance": null,
            "key": undefined,
            "nodeType": "host",
            "props": Object {
              "children": "18$",
            },
            "ref": null,
            "rendered": "18$",
            "type": "h3",
          },
        ],
        "type": [Function],
      },
      Object {
        "instance": null,
        "key": undefined,
        "nodeType": "class",
        "props": Object {
          "bsClass": "col",
          "children": Array [
            <Button
              active={false}
              block={false}
              bsClass="btn"
              bsStyle="default"
              className="icon-button"
              disabled={false}
              onClick={undefined}
>
              <i
                            className="fas fa-minus"
              />
</Button>,
            <h2
              className="count"
/>,
            <Button
              active={false}
              block={false}
              bsClass="btn"
              bsStyle="default"
              className="icon-button"
              disabled={false}
              onClick={undefined}
>
              <i
                            className="fas fa-plus"
              />
</Button>,
          ],
          "className": "counter",
          "componentClass": "div",
          "md": 5,
          "xs": 4,
        },
        "ref": null,
        "rendered": Array [
          Object {
            "instance": null,
            "key": undefined,
            "nodeType": "class",
            "props": Object {
              "active": false,
              "block": false,
              "bsClass": "btn",
              "bsStyle": "default",
              "children": <i
                className="fas fa-minus"
/>,
              "className": "icon-button",
              "disabled": false,
              "onClick": undefined,
            },
            "ref": null,
            "rendered": Object {
              "instance": null,
              "key": undefined,
              "nodeType": "host",
              "props": Object {
                "className": "fas fa-minus",
              },
              "ref": null,
              "rendered": null,
              "type": "i",
            },
            "type": [Function],
          },
          Object {
            "instance": null,
            "key": undefined,
            "nodeType": "host",
            "props": Object {
              "children": 0,
              "className": "count",
            },
            "ref": null,
            "rendered": 0,
            "type": "h2",
          },
          Object {
            "instance": null,
            "key": undefined,
            "nodeType": "class",
            "props": Object {
              "active": false,
              "block": false,
              "bsClass": "btn",
              "bsStyle": "default",
              "children": <i
                className="fas fa-plus"
/>,
              "className": "icon-button",
              "disabled": false,
              "onClick": undefined,
            },
            "ref": null,
            "rendered": Object {
              "instance": null,
              "key": undefined,
              "nodeType": "host",
              "props": Object {
                "className": "fas fa-plus",
              },
              "ref": null,
              "rendered": null,
              "type": "i",
            },
            "type": [Function],
          },
        ],
        "type": [Function],
      },
    ],
    "type": [Function],
  },
  Symbol(enzyme.__nodes__): Array [
    Object {
      "instance": null,
      "key": undefined,
      "nodeType": "class",
      "props": Object {
        "bsClass": "row",
        "children": Array [
          <Col
            bsClass="col"
            componentClass="div"
            md={3}
            xs={4}
>
            <img
                        alt="dish"
                        className="food-image"
                        src="default-pizza.png"
            />
</Col>,
          undefined,
          <Col
            bsClass="col"
            className="order-item"
            componentClass="div"
            md={4}
            xs={4}
>
            <h3>
                        Margarita
            </h3>
            <h5>
                        Red sauce,Sliced Pepperoni,White sauce
            </h5>
            <h4>
                        25
                        sm/
                        250g
            </h4>
            <h3>
                        18$
            </h3>
</Col>,
          <Col
            bsClass="col"
            className="counter"
            componentClass="div"
            md={5}
            xs={4}
>
            <Button
                        active={false}
                        block={false}
                        bsClass="btn"
                        bsStyle="default"
                        className="icon-button"
                        disabled={false}
                        onClick={undefined}
            >
                        <i
                                    className="fas fa-minus"
                        />
            </Button>
            <h2
                        className="count"
            />
            <Button
                        active={false}
                        block={false}
                        bsClass="btn"
                        bsStyle="default"
                        className="icon-button"
                        disabled={false}
                        onClick={undefined}
            >
                        <i
                                    className="fas fa-plus"
                        />
            </Button>
</Col>,
        ],
        "className": "order",
        "componentClass": "div",
      },
      "ref": null,
      "rendered": Array [
        Object {
          "instance": null,
          "key": undefined,
          "nodeType": "class",
          "props": Object {
            "bsClass": "col",
            "children": <img
              alt="dish"
              className="food-image"
              src="default-pizza.png"
/>,
            "componentClass": "div",
            "md": 3,
            "xs": 4,
          },
          "ref": null,
          "rendered": Object {
            "instance": null,
            "key": undefined,
            "nodeType": "host",
            "props": Object {
              "alt": "dish",
              "className": "food-image",
              "src": "default-pizza.png",
            },
            "ref": null,
            "rendered": null,
            "type": "img",
          },
          "type": [Function],
        },
        undefined,
        Object {
          "instance": null,
          "key": undefined,
          "nodeType": "class",
          "props": Object {
            "bsClass": "col",
            "children": Array [
              <h3>
                Margarita
</h3>,
              <h5>
                Red sauce,Sliced Pepperoni,White sauce
</h5>,
              <h4>
                25
                sm/
                250g
</h4>,
              <h3>
                18$
</h3>,
            ],
            "className": "order-item",
            "componentClass": "div",
            "md": 4,
            "xs": 4,
          },
          "ref": null,
          "rendered": Array [
            Object {
              "instance": null,
              "key": undefined,
              "nodeType": "host",
              "props": Object {
                "children": "Margarita",
              },
              "ref": null,
              "rendered": "Margarita",
              "type": "h3",
            },
            Object {
              "instance": null,
              "key": undefined,
              "nodeType": "host",
              "props": Object {
                "children": "Red sauce,Sliced Pepperoni,White sauce",
              },
              "ref": null,
              "rendered": "Red sauce,Sliced Pepperoni,White sauce",
              "type": "h5",
            },
            Object {
              "instance": null,
              "key": undefined,
              "nodeType": "host",
              "props": Object {
                "children": Array [
                  25,
                  "sm/",
                  "250g",
                ],
              },
              "ref": null,
              "rendered": Array [
                25,
                "sm/",
                "250g",
              ],
              "type": "h4",
            },
            Object {
              "instance": null,
              "key": undefined,
              "nodeType": "host",
              "props": Object {
                "children": "18$",
              },
              "ref": null,
              "rendered": "18$",
              "type": "h3",
            },
          ],
          "type": [Function],
        },
        Object {
          "instance": null,
          "key": undefined,
          "nodeType": "class",
          "props": Object {
            "bsClass": "col",
            "children": Array [
              <Button
                active={false}
                block={false}
                bsClass="btn"
                bsStyle="default"
                className="icon-button"
                disabled={false}
                onClick={undefined}
>
                <i
                                className="fas fa-minus"
                />
</Button>,
              <h2
                className="count"
/>,
              <Button
                active={false}
                block={false}
                bsClass="btn"
                bsStyle="default"
                className="icon-button"
                disabled={false}
                onClick={undefined}
>
                <i
                                className="fas fa-plus"
                />
</Button>,
            ],
            "className": "counter",
            "componentClass": "div",
            "md": 5,
            "xs": 4,
          },
          "ref": null,
          "rendered": Array [
            Object {
              "instance": null,
              "key": undefined,
              "nodeType": "class",
              "props": Object {
                "active": false,
                "block": false,
                "bsClass": "btn",
                "bsStyle": "default",
                "children": <i
                  className="fas fa-minus"
/>,
                "className": "icon-button",
                "disabled": false,
                "onClick": undefined,
              },
              "ref": null,
              "rendered": Object {
                "instance": null,
                "key": undefined,
                "nodeType": "host",
                "props": Object {
                  "className": "fas fa-minus",
                },
                "ref": null,
                "rendered": null,
                "type": "i",
              },
              "type": [Function],
            },
            Object {
              "instance": null,
              "key": undefined,
              "nodeType": "host",
              "props": Object {
                "children": 0,
                "className": "count",
              },
              "ref": null,
              "rendered": 0,
              "type": "h2",
            },
            Object {
              "instance": null,
              "key": undefined,
              "nodeType": "class",
              "props": Object {
                "active": false,
                "block": false,
                "bsClass": "btn",
                "bsStyle": "default",
                "children": <i
                  className="fas fa-plus"
/>,
                "className": "icon-button",
                "disabled": false,
                "onClick": undefined,
              },
              "ref": null,
              "rendered": Object {
                "instance": null,
                "key": undefined,
                "nodeType": "host",
                "props": Object {
                  "className": "fas fa-plus",
                },
                "ref": null,
                "rendered": null,
                "type": "i",
              },
              "type": [Function],
            },
          ],
          "type": [Function],
        },
      ],
      "type": [Function],
    },
  ],
  Symbol(enzyme.__options__): Object {
    "adapter": ReactSixteenAdapter {
      "options": Object {
        "enableComponentDidUpdateOnSetState": true,
        "lifecycles": Object {
          "componentDidUpdate": Object {
            "onSetState": true,
          },
          "getDerivedStateFromProps": true,
          "getSnapshotBeforeUpdate": true,
          "setState": Object {
            "skipsComponentDidUpdateOnNullish": true,
          },
        },
      },
    },
  },
}
`;
